<?xml version="1.0" encoding="UTF-8"?>
<svg width="162px" height="106px" viewBox="0 0 162 106" version="1.1" xmlns="http://www.w3.org/2000/svg" xmlns:xlink="http://www.w3.org/1999/xlink">
    <!-- Generator: Sketch 48.2 (47327) - http://www.bohemiancoding.com/sketch -->
    <title>Group 7</title>
    <desc>Created with Sketch.</desc>
    <defs></defs>
    <g id="Home" stroke="none" stroke-width="1" fill="none" fill-rule="evenodd" transform="translate(-754.000000, -1492.000000)" font-family=".SFNSDisplay, .SF NS Display" font-size="144" font-weight="normal" opacity="0.15">
        <g id="Our-Services" transform="translate(145.000000, 1390.000000)" fill="#9D2B4A">
            <g id="2" transform="translate(600.000000, 67.000000)">
                <g id="Group-7">
                    <text id="I">
                        <tspan x="0" y="139">I</tspan>
                    </text>
                    <text id="D">
                        <tspan x="13" y="139">D</tspan>
                    </text>
                    <text id="C">
                        <tspan x="77" y="139">C</tspan>
                    </text>
                </g>
            </g>
        </g>
    </g>
</svg>