<?xml version="1.0" encoding="UTF-8"?>
<svg width="82px" height="18px" viewBox="0 0 82 18" version="1.1" xmlns="http://www.w3.org/2000/svg" xmlns:xlink="http://www.w3.org/1999/xlink">
    <!-- Generator: Sketch 48.2 (47327) - http://www.bohemiancoding.com/sketch -->
    <title>Group</title>
    <desc>Created with Sketch.</desc>
    <defs></defs>
    <g id="Home" stroke="none" stroke-width="1" fill="none" fill-rule="evenodd" transform="translate(-679.000000, -2651.000000)">
        <g id="Testimonial" transform="translate(135.000000, 2205.000000)" fill="#9D2B4A">
            <g id="Group" transform="translate(544.000000, 446.000000)">
                <polygon id="Fill-27-Copy-3" transform="translate(41.000000, 9.000000) rotate(-180.000000) translate(-41.000000, -9.000000) " points="32 18 50 0 50 17.9997374"></polygon>
                <polygon id="Fill-27-Copy-5" fill-opacity="0.275050951" transform="translate(9.000000, 9.000000) rotate(-180.000000) translate(-9.000000, -9.000000) " points="0 18 18 0 18 17.9997374"></polygon>
                <polygon id="Fill-27-Copy-4" fill-opacity="0.275050951" transform="translate(73.000000, 9.000000) rotate(-180.000000) translate(-73.000000, -9.000000) " points="64 18 82 0 82 17.9997374"></polygon>
            </g>
        </g>
    </g>
</svg>